%YAML 1.1
%TAG !u! tag:unity3d.com,2011:
--- !u!114 &11400000
MonoBehaviour:
  m_ObjectHideFlags: 0
  m_PrefabParentObject: {fileID: 0}
  m_PrefabInternal: {fileID: 0}
  m_GameObject: {fileID: 0}
  m_Enabled: 1
  m_EditorHideFlags: 0
  m_Script: {fileID: 11500000, guid: d35cd96c7695eef499c37ab10becb01e, type: 3}
  m_Name: 0000
  m_EditorClassIdentifier: 
  id: 0
  itemName: Yellow Car
  itemDesc: 
  instantEffect:
    gold: -8000
    happiness: 100
    maxHappiness: 200
  penalty:
    happiness: 0
    maxHappiness: 0
  effectPerTurn:
    gold: -1000
    happiness: 5
  sellable:
    dayAbleToSell: 7
    valueChangedPerTurn: -300
  condition:
    currentGold: 8000
    moneyLv: 0
    amountOfHouses: 0
    amountOfGirlfriends: -1
    amountOfCars: 0
